,0,timestamp,event
0,83.0,1521045465.0,-1
1,71.5,1521045466.0,-1
2,73.0,1521045467.0,-1
3,75.5,1521045468.0,-1
4,72.4,1521045469.0,-1
5,74.17,1521045470.0,-1
6,76.14,1521045471.0,-1
7,78.38,1521045472.0,-1
8,79.44,1521045473.0,-1
9,81.2,1521045474.0,-1
10,82.64,1521045475.0,-1
11,83.75,1521045476.0,-1
12,84.77,1521045477.0,-1
13,85.64,1521045478.0,-1
14,85.87,1521045479.0,-1
15,85.94,1521045480.0,-1
16,85.94,1521045481.0,-1
17,85.83,1521045482.0,-1
18,85.74,1521045483.0,-1
19,85.6,1521045484.0,-1
20,85.43,1521045485.0,-1
21,85.36,1521045486.0,-1
22,85.3,1521045487.0,-1
23,85.33,1521045488.0,-1
24,85.44,1521045489.0,-1
25,85.46,1521045490.0,-1
26,85.67,1521045491.0,-1
27,85.89,1521045492.0,-1
28,86.1,1521045493.0,-1
29,86.27,1521045494.0,-1
30,86.32,1521045495.0,-1
31,86.38,1521045496.0,-1
32,86.15,1521045497.0,-1
33,85.94,1521045498.0,-1
34,85.74,1521045499.0,-1
35,85.5,1521045500.0,-1
36,85.27,1521045501.0,-1
37,85.0,1521045502.0,-1
38,84.74,1521045503.0,-1
39,84.5,1521045504.0,-1
40,84.27,1521045505.0,-1
41,84.05,1521045506.0,-1
42,83.88,1521045507.0,-1
43,83.7,1521045508.0,-1
44,83.53,1521045509.0,-1
45,83.41,1521045510.0,-1
46,83.28,1521045511.0,-1
47,83.19,1521045512.0,-1
48,83.08,1521045513.0,-1
49,82.94,1521045514.0,-1
50,82.78,1521045515.0,-1
51,82.62,1521045516.0,-1
52,82.47,1521045517.0,-1
53,82.35,1521045518.0,-1
54,82.35,1521045519.0,-1
55,82.3,1521045520.0,-1
56,82.28,1521045521.0,-1
57,82.28,1521045522.0,-1
58,82.22,1521045523.0,-1
59,82.22,1521045524.0,-1
60,82.23,1521045525.0,-1
61,82.62,1521045526.0,-1
62,82.78,1521045527.0,-1
63,82.85,1521045528.0,-1
64,83.32,1521045529.0,-1
65,83.37,1521045530.0,-1
66,83.27,1521045531.0,-1
67,83.07,1521045532.0,-1
68,82.97,1521045533.0,-1
69,82.73,1521045534.0,-1
70,82.55,1521045535.0,-1
71,82.43,1521045536.0,-1
72,82.33,1521045537.0,-1
73,82.25,1521045538.0,-1
74,82.3,1521045539.0,-1
75,82.38,1521045540.0,-1
76,82.52,1521045541.0,-1
77,82.68,1521045542.0,-1
78,82.85,1521045543.0,-1
79,83.03,1521045544.0,-1
80,83.22,1521045545.0,-1
81,83.33,1521045546.0,-1
82,83.43,1521045547.0,-1
83,83.48,1521045548.0,-1
84,83.42,1521045549.0,-1
85,83.4,1521045550.0,-1
86,83.3,1521045551.0,-1
87,83.18,1521045552.0,-1
88,83.1,1521045553.0,-1
89,83.07,1521045554.0,-1
90,83.1,1521045555.0,-1
91,83.13,1521045556.0,-1
92,83.32,1521045557.0,-1
93,83.48,1521045558.0,-1
94,83.63,1521045559.0,-1
95,83.82,1521045560.0,-1
96,83.98,1521045561.0,-1
97,84.2,1521045562.0,-1
98,84.43,1521045563.0,-1
99,84.62,1521045564.0,-1
100,84.82,1521045565.0,-1
101,85.02,1521045566.0,-1
102,85.17,1521045567.0,-1
103,85.32,1521045568.0,-1
104,85.47,1521045569.0,-1
105,85.65,1521045570.0,-1
106,85.82,1521045571.0,-1
107,85.95,1521045572.0,-1
108,86.1,1521045573.0,-1
109,86.3,1521045574.0,-1
110,86.55,1521045575.0,-1
111,86.82,1521045576.0,-1
112,87.07,1521045577.0,-1
113,87.3,1521045578.0,-1
114,87.43,1521045579.0,-1
115,87.6,1521045580.0,-1
116,87.77,1521045581.0,-1
117,87.9,1521045582.0,-1
118,88.08,1521045583.0,-1
119,88.22,1521045584.0,-1
120,88.28,1521045585.0,-1
121,88.28,1521045586.0,-1
122,88.28,1521045587.0,-1
123,88.28,1521045588.0,-1
124,88.25,1521045589.0,-1
125,88.27,1521045590.0,-1
126,88.37,1521045591.0,-1
127,88.38,1521045592.0,-1
128,88.42,1521045593.0,-1
129,88.4,1521045594.0,-1
130,88.3,1521045595.0,-1
131,88.12,1521045596.0,-1
132,87.92,1521045597.0,-1
133,87.8,1521045598.0,-1
134,87.63,1521045599.0,-1
135,87.52,1521045600.0,-1
136,87.4,1521045601.0,-1
137,87.3,1521045602.0,-1
138,87.18,1521045603.0,-1
139,87.05,1521045604.0,-1
140,86.93,1521045605.0,-1
141,86.85,1521045606.0,-1
142,86.78,1521045607.0,-1
143,86.7,1521045608.0,-1
144,86.68,1521045609.0,-1
145,86.6,1521045610.0,-1
146,86.52,1521045611.0,-1
147,86.43,1521045612.0,-1
148,86.23,1521045613.0,-1
149,86.0,1521045614.0,-1
150,85.75,1521045615.0,-1
151,85.52,1521045616.0,-1
152,85.3,1521045617.0,-1
153,85.08,1521045618.0,-1
154,84.87,1521045619.0,-1
155,84.67,1521045620.0,-1
156,84.45,1521045621.0,-1
157,84.52,1521045622.0,-1
158,84.6,1521045623.0,-1
159,84.8,1521045624.0,-1
160,84.98,1521045625.0,-1
161,85.15,1521045626.0,-1
162,85.37,1521045627.0,-1
163,85.57,1521045628.0,-1
164,85.73,1521045629.0,-1
165,85.8,1521045630.0,-1
166,85.9,1521045631.0,-1
167,86.0,1521045632.0,-1
168,86.12,1521045633.0,-1
169,86.23,1521045634.0,-1
170,86.37,1521045635.0,-1
171,86.52,1521045636.0,-1
172,86.67,1521045637.0,-1
173,86.88,1521045638.0,-1
174,87.08,1521045639.0,-1
175,87.28,1521045640.0,-1
176,87.45,1521045641.0,-1
177,87.6,1521045642.0,-1
178,87.73,1521045643.0,-1
179,87.73,1521045644.0,-1
180,87.77,1521045645.0,-1
181,87.9,1521045646.0,-1
182,87.97,1521045647.0,-1
183,88.02,1521045648.0,-1
184,88.07,1521045649.0,-1
185,88.1,1521045650.0,-1
186,88.1,1521045651.0,-1
187,88.17,1521045652.0,-1
188,88.22,1521045653.0,-1
189,88.3,1521045654.0,-1
190,88.42,1521045655.0,-1
191,88.58,1521045656.0,-1
192,88.73,1521045657.0,-1
193,88.8,1521045658.0,-1
194,88.9,1521045659.0,-1
195,88.95,1521045660.0,-1
196,88.97,1521045661.0,-1
197,88.95,1521045662.0,-1
198,88.97,1521045663.0,-1
199,88.98,1521045664.0,-1
200,89.0,1521045665.0,-1
201,89.03,1521045666.0,-1
202,89.07,1521045667.0,-1
203,89.13,1521045668.0,-1
204,89.22,1521045669.0,-1
205,89.35,1521045670.0,-1
206,89.47,1521045671.0,-1
207,89.6,1521045672.0,-1
208,89.82,1521045673.0,-1
209,90.05,1521045674.0,-1
210,90.22,1521045675.0,-1
211,90.37,1521045676.0,-1
212,90.52,1521045677.0,-1
213,90.73,1521045678.0,-1
214,90.97,1521045679.0,-1
215,91.18,1521045680.0,-1
216,91.43,1521045681.0,-1
217,91.47,1521045682.0,-1
218,91.43,1521045683.0,-1
219,91.32,1521045684.0,-1
220,91.18,1521045685.0,-1
221,91.07,1521045686.0,-1
222,90.92,1521045687.0,-1
223,90.8,1521045688.0,-1
224,90.72,1521045689.0,-1
225,90.67,1521045690.0,-1
226,90.65,1521045691.0,-1
227,90.67,1521045692.0,-1
228,90.68,1521045693.0,-1
229,90.68,1521045694.0,-1
230,90.63,1521045695.0,-1
231,90.62,1521045696.0,-1
232,90.58,1521045697.0,-1
233,90.45,1521045698.0,-1
234,90.32,1521045699.0,-1
235,90.17,1521045700.0,-1
236,90.02,1521045701.0,-1
237,89.77,1521045702.0,-1
238,89.57,1521045703.0,-1
239,89.52,1521045704.0,-1
240,89.48,1521045705.0,-1
241,89.43,1521045706.0,-1
242,89.42,1521045707.0,-1
243,89.5,1521045708.0,-1
244,89.7,1521045709.0,-1
245,89.92,1521045710.0,-1
246,90.07,1521045711.0,-1
247,90.25,1521045712.0,-1
248,90.43,1521045713.0,-1
249,90.63,1521045714.0,-1
250,90.83,1521045715.0,-1
251,91.02,1521045716.0,-1
252,91.22,1521045717.0,-1
253,91.4,1521045718.0,-1
254,91.62,1521045719.0,-1
255,91.83,1521045720.0,-1
256,92.05,1521045721.0,-1
257,92.25,1521045722.0,-1
258,92.38,1521045723.0,-1
259,92.52,1521045724.0,-1
260,92.6,1521045725.0,-1
261,92.65,1521045726.0,-1
262,92.7,1521045727.0,-1
263,92.75,1521045728.0,-1
264,92.8,1521045729.0,-1
265,92.85,1521045730.0,-1
266,92.9,1521045731.0,-1
267,92.93,1521045732.0,-1
268,92.97,1521045733.0,-1
269,92.97,1521045734.0,-1
270,93.03,1521045735.0,-1
271,93.12,1521045736.0,-1
272,93.18,1521045737.0,-1
273,93.2,1521045738.0,-1
274,93.22,1521045739.0,-1
275,93.23,1521045740.0,-1
276,93.27,1521045741.0,-1
277,93.22,1521045742.0,-1
278,93.18,1521045743.0,-1
279,93.17,1521045744.0,-1
280,93.17,1521045745.0,-1
281,93.17,1521045746.0,-1
282,93.18,1521045747.0,-1
283,93.2,1521045748.0,-1
284,93.23,1521045749.0,-1
285,93.27,1521045750.0,-1
286,93.27,1521045751.0,-1
287,93.22,1521045752.0,-1
288,93.13,1521045753.0,-1
289,93.05,1521045754.0,-1
290,92.98,1521045755.0,-1
291,92.88,1521045756.0,-1
292,92.8,1521045757.0,-1
293,92.75,1521045758.0,-1
294,92.72,1521045759.0,-1
295,92.7,1521045760.0,-1
296,92.67,1521045761.0,-1
297,92.75,1521045762.0,-1
298,92.8,1521045763.0,-1
299,92.82,1521045764.0,-1
300,92.78,1521045765.0,-1
301,92.73,1521045766.0,-1
302,92.67,1521045767.0,-1
303,92.52,1521045768.0,-1
304,92.28,1521045769.0,-1
305,92.07,1521045770.0,-1
306,91.93,1521045771.0,-1
307,91.8,1521045772.0,-1
308,91.68,1521045773.0,-1
309,91.55,1521045774.0,-1
310,91.4,1521045775.0,-1
311,91.25,1521045776.0,-1
312,91.05,1521045777.0,-1
313,90.88,1521045778.0,-1
314,90.67,1521045779.0,-1
315,90.5,1521045780.0,-1
316,90.32,1521045781.0,-1
317,90.17,1521045782.0,-1
318,90.08,1521045783.0,-1
319,90.02,1521045784.0,-1
320,90.0,1521045785.0,-1
321,89.98,1521045786.0,-1
322,89.95,1521045787.0,-1
323,89.93,1521045788.0,-1
324,89.88,1521045789.0,-1
325,89.88,1521045790.0,-1
326,89.88,1521045791.0,-1
327,89.92,1521045792.0,-1
328,89.98,1521045793.0,-1
329,90.08,1521045794.0,-1
330,90.18,1521045795.0,-1
331,90.28,1521045796.0,-1
332,90.38,1521045797.0,-1
333,90.48,1521045798.0,-1
334,90.55,1521045799.0,-1
335,90.62,1521045800.0,-1
336,90.67,1521045801.0,-1
337,90.72,1521045802.0,-1
338,90.8,1521045803.0,-1
339,90.88,1521045804.0,-1
340,90.98,1521045805.0,-1
341,91.07,1521045806.0,-1
342,91.13,1521045807.0,-1
343,91.22,1521045808.0,-1
344,91.28,1521045809.0,-1
345,91.35,1521045810.0,-1
346,91.45,1521045811.0,-1
347,91.58,1521045812.0,-1
348,91.77,1521045813.0,-1
349,91.95,1521045814.0,-1
350,92.13,1521045815.0,-1
351,92.28,1521045816.0,-1
352,92.43,1521045817.0,-1
353,92.57,1521045818.0,-1
354,92.67,1521045819.0,-1
355,92.78,1521045820.0,-1
356,92.93,1521045821.0,-1
357,93.1,1521045822.0,-1
358,93.27,1521045823.0,-1
359,93.43,1521045824.0,-1
360,93.62,1521045825.0,-1
361,93.9,1521045826.0,-1
362,94.17,1521045827.0,-1
363,94.42,1521045828.0,-1
364,94.63,1521045829.0,-1
365,94.83,1521045830.0,-1
366,95.05,1521045831.0,-1
367,95.23,1521045832.0,-1
368,95.47,1521045833.0,-1
369,95.5,1521045834.0,-1
370,95.53,1521045835.0,-1
371,95.53,1521045836.0,-1
372,95.57,1521045837.0,-1
373,95.55,1521045838.0,-1
374,95.57,1521045839.0,-1
375,95.55,1521045840.0,-1
376,95.55,1521045841.0,-1
377,95.57,1521045842.0,-1
378,95.58,1521045843.0,-1
379,95.6,1521045844.0,-1
380,95.62,1521045845.0,-1
381,95.65,1521045846.0,-1
382,95.68,1521045847.0,-1
383,95.7,1521045848.0,-1
384,95.73,1521045849.0,-1
385,95.72,1521045850.0,-1
386,95.72,1521045851.0,-1
387,95.68,1521045852.0,-1
388,95.62,1521045853.0,-1
389,95.55,1521045854.0,-1
390,95.48,1521045855.0,-1
391,95.4,1521045856.0,-1
392,95.3,1521045857.0,-1
393,95.2,1521045858.0,-1
394,95.13,1521045859.0,-1
395,95.07,1521045860.0,-1
396,95.0,1521045861.0,-1
397,94.93,1521045862.0,-1
398,94.85,1521045863.0,-1
399,94.77,1521045864.0,-1
400,94.68,1521045865.0,-1
401,94.62,1521045866.0,-1
402,94.53,1521045867.0,-1
403,94.43,1521045868.0,-1
404,94.32,1521045869.0,-1
405,94.17,1521045870.0,-1
406,93.98,1521045871.0,-1
407,93.78,1521045872.0,-1
408,93.55,1521045873.0,-1
409,93.32,1521045874.0,-1
410,93.05,1521045875.0,-1
411,92.77,1521045876.0,-1
412,92.48,1521045877.0,-1
413,92.13,1521045878.0,-1
414,91.63,1521045879.0,-1
415,91.12,1521045880.0,-1
416,90.63,1521045881.0,-1
417,90.15,1521045882.0,-1
418,89.68,1521045883.0,-1
419,89.22,1521045884.0,-1
420,88.83,1521045885.0,-1
421,88.43,1521045886.0,-1
422,88.05,1521045887.0,-1
423,87.83,1521045888.0,-1
424,87.7,1521045889.0,-1
425,87.57,1521045890.0,-1
426,87.42,1521045891.0,-1
427,87.28,1521045892.0,-1
428,87.05,1521045893.0,-1
429,87.0,1521045894.0,-1
430,86.88,1521045895.0,-1
431,86.9,1521045896.0,-1
432,86.87,1521045897.0,-1
433,86.92,1521045898.0,-1
434,86.98,1521045899.0,-1
435,87.07,1521045900.0,-1
436,87.17,1521045901.0,-1
437,87.27,1521045902.0,-1
438,87.35,1521045903.0,-1
439,87.38,1521045904.0,-1
440,87.42,1521045905.0,-1
441,87.43,1521045906.0,-1
442,87.47,1521045907.0,-1
443,87.52,1521045908.0,-1
444,87.53,1521045909.0,-1
445,87.57,1521045910.0,-1
446,87.57,1521045911.0,-1
447,87.6,1521045912.0,-1
448,87.62,1521045913.0,-1
449,87.6,1521045914.0,-1
450,87.58,1521045915.0,-1
451,87.57,1521045916.0,-1
452,87.58,1521045917.0,baseline
453,87.63,1521045918.0,baseline
454,87.78,1521045919.0,baseline
455,87.92,1521045920.0,baseline
456,88.03,1521045921.0,baseline
457,88.23,1521045922.0,baseline
458,88.42,1521045923.0,baseline
459,88.67,1521045924.0,baseline
460,88.9,1521045925.0,baseline
461,89.13,1521045926.0,baseline
462,89.37,1521045927.0,baseline
463,89.6,1521045928.0,baseline
464,89.85,1521045929.0,baseline
465,90.1,1521045930.0,baseline
466,90.33,1521045931.0,baseline
467,90.6,1521045932.0,baseline
468,90.87,1521045933.0,baseline
469,91.1,1521045934.0,baseline
470,91.32,1521045935.0,baseline
471,91.57,1521045936.0,baseline
472,91.8,1521045937.0,baseline
473,92.17,1521045938.0,baseline
474,92.5,1521045939.0,baseline
475,92.8,1521045940.0,baseline
476,93.05,1521045941.0,baseline
477,93.3,1521045942.0,baseline
478,93.52,1521045943.0,baseline
479,93.72,1521045944.0,baseline
480,93.83,1521045945.0,baseline
481,93.87,1521045946.0,baseline
482,93.87,1521045947.0,baseline
483,93.68,1521045948.0,baseline
484,93.42,1521045949.0,baseline
485,93.12,1521045950.0,baseline
486,92.83,1521045951.0,baseline
487,92.53,1521045952.0,baseline
488,92.27,1521045953.0,baseline
489,92.02,1521045954.0,baseline
490,91.85,1521045955.0,baseline
491,91.6,1521045956.0,baseline
492,91.4,1521045957.0,baseline
493,91.12,1521045958.0,baseline
494,90.65,1521045959.0,baseline
495,90.22,1521045960.0,baseline
496,89.75,1521045961.0,baseline
497,89.18,1521045962.0,baseline
498,88.65,1521045963.0,baseline
499,88.2,1521045964.0,baseline
500,87.72,1521045965.0,baseline
501,87.62,1521045966.0,baseline
502,87.55,1521045967.0,baseline
503,87.47,1521045968.0,baseline
504,87.43,1521045969.0,baseline
505,87.4,1521045970.0,baseline
506,87.42,1521045971.0,baseline
507,87.42,1521045972.0,baseline
508,87.4,1521045973.0,baseline
509,87.4,1521045974.0,baseline
510,87.4,1521045975.0,baseline
511,87.37,1521045976.0,baseline
512,87.32,1521045977.0,baseline
513,87.25,1521045978.0,baseline
514,87.07,1521045979.0,baseline
515,86.92,1521045980.0,baseline
516,86.78,1521045981.0,baseline
517,86.52,1521045982.0,baseline
518,86.23,1521045983.0,baseline
519,85.88,1521045984.0,baseline
520,85.53,1521045985.0,baseline
521,85.17,1521045986.0,baseline
522,84.8,1521045987.0,baseline
523,84.43,1521045988.0,baseline
524,84.05,1521045989.0,baseline
525,83.7,1521045990.0,baseline
526,83.33,1521045991.0,baseline
527,82.93,1521045992.0,baseline
528,82.55,1521045993.0,baseline
529,82.22,1521045994.0,baseline
530,81.93,1521045995.0,baseline
531,81.65,1521045996.0,baseline
532,81.38,1521045997.0,baseline
533,81.13,1521045998.0,baseline
534,81.1,1521045999.0,baseline
535,81.08,1521046000.0,baseline
536,81.07,1521046001.0,baseline
537,81.03,1521046002.0,baseline
538,81.05,1521046003.0,baseline
539,81.1,1521046004.0,baseline
540,81.17,1521046005.0,baseline
541,81.23,1521046006.0,baseline
542,81.35,1521046007.0,baseline
543,81.48,1521046008.0,baseline
544,81.65,1521046009.0,baseline
545,81.83,1521046010.0,baseline
546,81.97,1521046011.0,baseline
547,82.12,1521046012.0,baseline
548,82.25,1521046013.0,baseline
549,82.37,1521046014.0,baseline
550,82.43,1521046015.0,baseline
551,82.5,1521046016.0,baseline
552,82.57,1521046017.0,baseline
553,82.58,1521046018.0,baseline
554,82.77,1521046019.0,baseline
555,82.83,1521046020.0,baseline
556,82.9,1521046021.0,baseline
557,83.27,1521046022.0,baseline
558,83.52,1521046023.0,baseline
559,83.65,1521046024.0,baseline
560,83.82,1521046025.0,baseline
561,83.62,1521046026.0,baseline
562,83.4,1521046027.0,baseline
563,83.18,1521046028.0,baseline
564,82.97,1521046029.0,baseline
565,82.77,1521046030.0,baseline
566,82.55,1521046031.0,baseline
567,82.28,1521046032.0,baseline
568,82.05,1521046033.0,baseline
569,81.85,1521046034.0,baseline
570,81.65,1521046035.0,baseline
571,81.43,1521046036.0,baseline
572,81.22,1521046037.0,baseline
573,80.95,1521046038.0,baseline
574,80.67,1521046039.0,baseline
575,80.27,1521046040.0,song1
576,79.87,1521046041.0,song1
577,79.52,1521046042.0,song1
578,79.23,1521046043.0,song1
579,78.97,1521046044.0,song1
580,78.67,1521046045.0,song1
581,78.37,1521046046.0,song1
582,78.07,1521046047.0,song1
583,77.78,1521046048.0,song1
584,77.55,1521046049.0,song1
585,77.45,1521046050.0,song1
586,77.4,1521046051.0,song1
587,77.33,1521046052.0,song1
588,77.33,1521046053.0,song1
589,77.33,1521046054.0,song1
590,77.33,1521046055.0,song1
591,77.37,1521046056.0,song1
592,77.57,1521046057.0,song1
593,77.68,1521046058.0,song1
594,77.82,1521046059.0,song1
595,77.98,1521046060.0,song1
596,78.17,1521046061.0,song1
597,78.43,1521046062.0,song1
598,78.67,1521046063.0,song1
599,78.8,1521046064.0,song1
600,78.95,1521046065.0,song1
601,79.1,1521046066.0,song1
602,79.23,1521046067.0,song1
603,79.35,1521046068.0,song1
604,79.45,1521046069.0,song1
605,79.45,1521046070.0,song1
606,79.47,1521046071.0,song1
607,79.48,1521046072.0,song1
608,79.47,1521046073.0,song1
609,79.47,1521046074.0,song1
610,79.5,1521046075.0,song1
611,79.52,1521046076.0,song1
612,79.53,1521046077.0,song1
613,79.63,1521046078.0,song1
614,79.73,1521046079.0,song1
615,79.92,1521046080.0,song1
616,80.1,1521046081.0,song1
617,80.1,1521046082.0,song1
618,80.17,1521046083.0,song1
619,80.32,1521046084.0,song1
620,80.48,1521046085.0,song1
621,80.65,1521046086.0,song1
622,80.8,1521046087.0,song1
623,80.88,1521046088.0,song1
624,80.98,1521046089.0,song1
625,81.13,1521046090.0,song1
626,81.27,1521046091.0,song1
627,81.45,1521046092.0,song1
628,81.62,1521046093.0,song1
629,81.77,1521046094.0,song1
630,81.93,1521046095.0,song1
631,82.15,1521046096.0,song1
632,82.38,1521046097.0,song1
633,82.67,1521046098.0,song1
634,82.93,1521046099.0,song1
635,83.3,1521046100.0,song1
636,83.67,1521046101.0,song1
637,84.03,1521046102.0,song1
638,84.35,1521046103.0,song1
639,84.65,1521046104.0,song1
640,84.98,1521046105.0,song1
641,85.33,1521046106.0,song1
642,85.67,1521046107.0,song1
643,86.0,1521046108.0,song1
644,86.28,1521046109.0,song1
645,86.43,1521046110.0,song1
646,86.57,1521046111.0,song1
647,86.7,1521046112.0,song1
648,86.75,1521046113.0,song1
649,86.77,1521046114.0,song1
650,86.68,1521046115.0,song1
651,86.53,1521046116.0,song1
652,86.23,1521046117.0,song1
653,86.02,1521046118.0,song1
654,85.8,1521046119.0,song1
655,85.57,1521046120.0,song1
656,85.33,1521046121.0,song1
657,85.03,1521046122.0,song1
658,84.6,1521046123.0,song1
659,84.28,1521046124.0,song1
660,84.0,1521046125.0,song1
661,83.75,1521046126.0,song1
662,83.52,1521046127.0,song1
663,83.3,1521046128.0,song1
664,83.22,1521046129.0,song1
665,83.25,1521046130.0,song1
666,83.3,1521046131.0,song1
667,83.37,1521046132.0,song1
668,83.48,1521046133.0,song1
669,83.58,1521046134.0,song1
670,83.72,1521046135.0,song1
671,83.82,1521046136.0,song1
672,83.87,1521046137.0,song1
673,83.9,1521046138.0,song1
674,83.88,1521046139.0,song1
675,83.85,1521046140.0,song1
676,83.85,1521046141.0,song1
677,83.85,1521046142.0,song1
678,83.88,1521046143.0,song1
679,83.93,1521046144.0,song1
680,83.95,1521046145.0,song1
681,83.98,1521046146.0,song1
682,84.0,1521046147.0,song1
683,84.1,1521046148.0,song1
684,84.18,1521046149.0,song1
685,84.18,1521046150.0,song1
686,84.2,1521046151.0,song1
687,84.22,1521046152.0,song1
688,84.25,1521046153.0,song1
689,84.28,1521046154.0,song1
690,84.3,1521046155.0,song1
691,84.3,1521046156.0,song1
692,84.28,1521046157.0,song1
693,84.27,1521046158.0,song1
694,84.28,1521046159.0,song1
695,84.3,1521046160.0,song1
696,84.3,1521046161.0,-1
697,84.28,1521046162.0,-1
698,84.27,1521046163.0,-1
699,84.25,1521046164.0,-1
700,84.2,1521046165.0,-1
701,84.15,1521046166.0,-1
702,84.15,1521046167.0,-1
703,84.18,1521046168.0,-1
704,84.27,1521046169.0,-1
705,84.35,1521046170.0,-1
706,84.45,1521046171.0,-1
707,84.57,1521046172.0,-1
708,84.73,1521046173.0,-1
709,84.98,1521046174.0,-1
710,85.32,1521046175.0,-1
711,85.63,1521046176.0,-1
712,85.92,1521046177.0,-1
713,86.13,1521046178.0,-1
714,86.37,1521046179.0,-1
715,86.45,1521046180.0,-1
716,86.55,1521046181.0,-1
717,86.65,1521046182.0,-1
718,86.8,1521046183.0,-1
719,86.95,1521046184.0,-1
720,87.05,1521046185.0,-1
721,87.15,1521046186.0,-1
722,87.25,1521046187.0,-1
723,87.35,1521046188.0,-1
724,87.3,1521046189.0,-1
725,87.25,1521046190.0,-1
726,87.22,1521046191.0,-1
727,87.18,1521046192.0,-1
728,87.15,1521046193.0,-1
729,87.18,1521046194.0,-1
730,87.18,1521046195.0,-1
731,87.2,1521046196.0,-1
732,87.27,1521046197.0,-1
733,87.33,1521046198.0,-1
734,87.45,1521046199.0,-1
735,87.57,1521046200.0,-1
736,87.65,1521046201.0,-1
737,87.7,1521046202.0,-1
738,87.77,1521046203.0,-1
739,87.82,1521046204.0,-1
740,87.85,1521046205.0,-1
741,87.87,1521046206.0,-1
742,87.88,1521046207.0,-1
743,87.88,1521046208.0,-1
744,87.93,1521046209.0,-1
745,87.97,1521046210.0,-1
746,87.9,1521046211.0,-1
747,87.83,1521046212.0,-1
748,87.82,1521046213.0,-1
749,87.8,1521046214.0,-1
750,87.8,1521046215.0,-1
751,87.77,1521046216.0,-1
752,87.73,1521046217.0,-1
753,87.67,1521046218.0,-1
754,87.6,1521046219.0,-1
755,87.57,1521046220.0,-1
756,87.65,1521046221.0,-1
757,87.73,1521046222.0,-1
758,87.83,1521046223.0,-1
759,87.93,1521046224.0,-1
760,88.07,1521046225.0,-1
761,88.1,1521046226.0,-1
762,87.88,1521046227.0,-1
763,87.7,1521046228.0,-1
764,87.47,1521046229.0,-1
765,87.27,1521046230.0,-1
766,87.0,1521046231.0,-1
767,86.7,1521046232.0,-1
768,86.33,1521046233.0,-1
769,85.85,1521046234.0,-1
770,85.37,1521046235.0,-1
771,84.97,1521046236.0,-1
772,84.58,1521046237.0,-1
773,84.18,1521046238.0,-1
774,83.75,1521046239.0,-1
775,83.5,1521046240.0,-1
776,83.22,1521046241.0,-1
777,82.95,1521046242.0,-1
778,82.8,1521046243.0,-1
779,82.65,1521046244.0,-1
780,82.5,1521046245.0,-1
781,82.35,1521046246.0,-1
782,82.22,1521046247.0,-1
783,82.08,1521046248.0,-1
784,81.97,1521046249.0,-1
785,81.87,1521046250.0,-1
786,81.75,1521046251.0,-1
787,81.62,1521046252.0,-1
788,81.5,1521046253.0,-1
789,81.43,1521046254.0,-1
790,81.38,1521046255.0,-1
791,81.35,1521046256.0,-1
792,81.35,1521046257.0,-1
793,81.37,1521046258.0,-1
794,81.37,1521046259.0,-1
795,81.38,1521046260.0,-1
796,81.4,1521046261.0,-1
797,81.42,1521046262.0,-1
798,81.38,1521046263.0,-1
799,81.32,1521046264.0,-1
800,81.27,1521046265.0,-1
801,81.22,1521046266.0,-1
802,81.22,1521046267.0,-1
803,81.23,1521046268.0,-1
804,81.17,1521046269.0,-1
805,81.15,1521046270.0,-1
806,81.25,1521046271.0,-1
807,81.32,1521046272.0,-1
808,81.3,1521046273.0,-1
809,81.25,1521046274.0,-1
810,81.13,1521046275.0,-1
811,81.07,1521046276.0,-1
812,80.97,1521046277.0,-1
813,80.92,1521046278.0,-1
814,80.87,1521046279.0,-1
815,80.8,1521046280.0,-1
816,80.68,1521046281.0,-1
817,80.58,1521046282.0,-1
818,80.52,1521046283.0,-1
819,80.45,1521046284.0,-1
820,80.38,1521046285.0,-1
821,80.43,1521046286.0,-1
822,80.7,1521046287.0,-1
823,80.88,1521046288.0,-1
824,81.08,1521046289.0,-1
825,81.25,1521046290.0,-1
826,81.47,1521046291.0,-1
827,81.7,1521046292.0,-1
828,81.97,1521046293.0,-1
829,82.3,1521046294.0,-1
830,82.63,1521046295.0,-1
831,82.95,1521046296.0,-1
832,83.27,1521046297.0,-1
833,83.6,1521046298.0,-1
834,83.93,1521046299.0,-1
835,84.23,1521046300.0,-1
836,84.53,1521046301.0,-1
837,84.82,1521046302.0,-1
838,85.07,1521046303.0,-1
839,85.3,1521046304.0,-1
840,85.53,1521046305.0,-1
841,85.75,1521046306.0,-1
842,85.92,1521046307.0,-1
843,86.07,1521046308.0,-1
844,86.22,1521046309.0,-1
845,86.32,1521046310.0,-1
846,86.4,1521046311.0,-1
847,86.48,1521046312.0,-1
848,86.57,1521046313.0,-1
849,86.58,1521046314.0,-1
850,86.65,1521046315.0,-1
851,86.72,1521046316.0,-1
852,86.77,1521046317.0,-1
853,86.8,1521046318.0,-1
854,86.85,1521046319.0,-1
855,86.85,1521046320.0,-1
856,86.87,1521046321.0,-1
857,86.87,1521046322.0,-1
858,86.87,1521046323.0,-1
859,86.9,1521046324.0,-1
860,86.97,1521046325.0,-1
861,87.05,1521046326.0,-1
862,87.1,1521046327.0,-1
863,87.17,1521046328.0,-1
864,87.28,1521046329.0,-1
865,87.4,1521046330.0,-1
866,87.52,1521046331.0,-1
867,87.65,1521046332.0,-1
868,87.82,1521046333.0,-1
869,88.0,1521046334.0,-1
870,88.2,1521046335.0,-1
871,88.38,1521046336.0,-1
872,88.58,1521046337.0,-1
873,88.75,1521046338.0,-1
874,88.92,1521046339.0,-1
875,89.05,1521046340.0,-1
876,89.13,1521046341.0,-1
877,89.22,1521046342.0,-1
878,89.27,1521046343.0,-1
879,89.33,1521046344.0,-1
880,89.38,1521046345.0,-1
881,89.42,1521046346.0,-1
882,89.47,1521046347.0,-1
883,89.52,1521046348.0,-1
884,89.58,1521046349.0,-1
885,89.62,1521046350.0,-1
886,89.63,1521046351.0,-1
887,89.65,1521046352.0,-1
888,89.65,1521046353.0,-1
889,89.62,1521046354.0,-1
890,89.6,1521046355.0,-1
891,89.57,1521046356.0,-1
892,89.58,1521046357.0,-1
893,89.57,1521046358.0,-1
894,89.55,1521046359.0,-1
895,89.52,1521046360.0,-1
896,89.5,1521046361.0,-1
897,89.47,1521046362.0,-1
898,89.43,1521046363.0,-1
899,89.4,1521046364.0,-1
900,89.35,1521046365.0,-1
901,89.32,1521046366.0,-1
902,89.3,1521046367.0,-1
903,89.3,1521046368.0,-1
904,89.32,1521046369.0,-1
905,89.35,1521046370.0,-1
906,89.42,1521046371.0,-1
907,89.48,1521046372.0,-1
908,89.55,1521046373.0,-1
909,89.58,1521046374.0,-1
910,89.57,1521046375.0,-1
911,89.55,1521046376.0,-1
912,89.52,1521046377.0,-1
913,89.47,1521046378.0,-1
914,89.4,1521046379.0,-1
915,89.37,1521046380.0,-1
916,89.33,1521046381.0,-1
917,89.32,1521046382.0,-1
918,89.32,1521046383.0,-1
919,89.3,1521046384.0,-1
920,89.27,1521046385.0,-1
921,89.22,1521046386.0,-1
922,89.17,1521046387.0,-1
923,89.08,1521046388.0,-1
924,89.0,1521046389.0,-1
925,88.88,1521046390.0,-1
926,88.75,1521046391.0,-1
927,88.62,1521046392.0,-1
928,88.52,1521046393.0,-1
929,88.42,1521046394.0,-1
930,88.37,1521046395.0,-1
931,88.35,1521046396.0,-1
932,88.32,1521046397.0,-1
933,88.27,1521046398.0,-1
934,88.18,1521046399.0,-1
935,88.15,1521046400.0,-1
936,88.12,1521046401.0,-1
937,88.1,1521046402.0,-1
938,88.08,1521046403.0,-1
939,88.15,1521046404.0,-1
940,88.23,1521046405.0,-1
941,88.3,1521046406.0,-1
942,88.37,1521046407.0,-1
943,88.42,1521046408.0,-1
944,88.52,1521046409.0,-1
945,88.65,1521046410.0,-1
946,88.82,1521046411.0,-1
947,89.02,1521046412.0,-1
948,89.23,1521046413.0,-1
949,89.45,1521046414.0,-1
950,89.65,1521046415.0,-1
951,89.82,1521046416.0,-1
952,90.03,1521046417.0,-1
953,90.25,1521046418.0,-1
954,90.43,1521046419.0,-1
955,90.62,1521046420.0,-1
956,90.78,1521046421.0,-1
957,90.85,1521046422.0,-1
958,90.9,1521046423.0,-1
959,90.93,1521046424.0,-1
960,90.98,1521046425.0,-1
961,91.02,1521046426.0,-1
962,91.03,1521046427.0,-1
963,91.05,1521046428.0,-1
964,91.03,1521046429.0,-1
965,91.0,1521046430.0,-1
966,90.92,1521046431.0,-1
967,90.85,1521046432.0,-1
968,90.78,1521046433.0,-1
969,90.7,1521046434.0,-1
970,90.58,1521046435.0,-1
971,90.47,1521046436.0,-1
972,90.35,1521046437.0,-1
973,90.27,1521046438.0,-1
974,90.2,1521046439.0,-1
975,90.15,1521046440.0,-1
976,90.13,1521046441.0,-1
977,90.07,1521046442.0,-1
978,90.0,1521046443.0,-1
979,89.97,1521046444.0,-1
980,89.93,1521046445.0,-1
981,89.92,1521046446.0,-1
982,89.93,1521046447.0,-1
983,89.98,1521046448.0,-1
984,90.02,1521046449.0,-1
985,90.05,1521046450.0,-1
986,90.08,1521046451.0,-1
987,90.12,1521046452.0,-1
988,90.1,1521046453.0,-1
989,90.08,1521046454.0,-1
990,90.05,1521046455.0,-1
991,90.0,1521046456.0,-1
992,89.98,1521046457.0,-1
993,90.0,1521046458.0,-1
994,90.05,1521046459.0,-1
995,90.07,1521046460.0,-1
996,90.07,1521046461.0,-1
997,90.07,1521046462.0,-1
998,90.05,1521046463.0,-1
999,89.93,1521046464.0,-1
1000,89.8,1521046465.0,-1
1001,89.68,1521046466.0,song2
1002,89.53,1521046467.0,song2
1003,89.4,1521046468.0,song2
1004,89.2,1521046469.0,song2
1005,89.02,1521046470.0,song2
1006,88.82,1521046471.0,song2
1007,88.6,1521046472.0,song2
1008,88.37,1521046473.0,song2
1009,88.13,1521046474.0,song2
1010,87.97,1521046475.0,song2
1011,87.87,1521046476.0,song2
1012,87.65,1521046477.0,song2
1013,87.28,1521046478.0,song2
1014,86.93,1521046479.0,song2
1015,86.58,1521046480.0,song2
1016,86.23,1521046481.0,song2
1017,86.03,1521046482.0,song2
1018,85.48,1521046483.0,song2
1019,84.98,1521046484.0,song2
1020,84.5,1521046485.0,song2
1021,84.02,1521046486.0,song2
1022,83.55,1521046487.0,song2
1023,83.1,1521046488.0,song2
1024,82.67,1521046489.0,song2
1025,82.28,1521046490.0,song2
1026,82.0,1521046491.0,song2
1027,81.75,1521046492.0,song2
1028,81.48,1521046493.0,song2
1029,81.27,1521046494.0,song2
1030,81.23,1521046495.0,song2
1031,81.2,1521046496.0,song2
1032,81.17,1521046497.0,song2
1033,81.13,1521046498.0,song2
1034,81.1,1521046499.0,song2
1035,81.07,1521046500.0,song2
1036,80.97,1521046501.0,song2
1037,80.95,1521046502.0,song2
1038,80.95,1521046503.0,song2
1039,80.97,1521046504.0,song2
1040,80.97,1521046505.0,song2
1041,80.95,1521046506.0,song2
1042,80.88,1521046507.0,song2
1043,80.73,1521046508.0,song2
1044,80.6,1521046509.0,song2
1045,80.4,1521046510.0,song2
1046,80.25,1521046511.0,song2
1047,80.08,1521046512.0,song2
1048,79.92,1521046513.0,song2
1049,79.78,1521046514.0,song2
1050,79.63,1521046515.0,song2
1051,79.47,1521046516.0,song2
1052,79.3,1521046517.0,song2
1053,79.1,1521046518.0,song2
1054,78.87,1521046519.0,song2
1055,78.65,1521046520.0,song2
1056,78.43,1521046521.0,song2
1057,78.22,1521046522.0,song2
1058,78.0,1521046523.0,song2
1059,77.75,1521046524.0,song2
1060,77.5,1521046525.0,song2
1061,77.25,1521046526.0,song2
1062,77.03,1521046527.0,song2
1063,76.8,1521046528.0,song2
1064,76.52,1521046529.0,song2
1065,76.22,1521046530.0,song2
1066,75.93,1521046531.0,song2
1067,75.65,1521046532.0,song2
1068,75.38,1521046533.0,song2
1069,75.1,1521046534.0,song2
1070,74.73,1521046535.0,song2
1071,74.3,1521046536.0,song2
1072,73.88,1521046537.0,song2
1073,73.67,1521046538.0,song2
1074,73.45,1521046539.0,song2
1075,73.22,1521046540.0,song2
1076,73.25,1521046541.0,song2
1077,73.23,1521046542.0,song2
1078,73.58,1521046543.0,song2
1079,73.92,1521046544.0,song2
1080,74.3,1521046545.0,song2
1081,74.73,1521046546.0,song2
1082,75.15,1521046547.0,song2
1083,75.57,1521046548.0,song2
1084,75.97,1521046549.0,song2
1085,76.3,1521046550.0,song2
1086,76.57,1521046551.0,song2
1087,76.78,1521046552.0,song2
1088,76.98,1521046553.0,song2
1089,77.17,1521046554.0,song2
1090,77.2,1521046555.0,song2
1091,77.22,1521046556.0,song2
1092,77.23,1521046557.0,song2
1093,77.25,1521046558.0,song2
1094,77.27,1521046559.0,song2
1095,77.25,1521046560.0,song2
1096,77.28,1521046561.0,song2
1097,77.38,1521046562.0,song2
1098,77.45,1521046563.0,song2
1099,77.47,1521046564.0,song2
1100,77.5,1521046565.0,song2
1101,77.5,1521046566.0,song2
1102,77.52,1521046567.0,song2
1103,77.57,1521046568.0,song2
1104,77.58,1521046569.0,song2
1105,77.68,1521046570.0,song2
1106,77.73,1521046571.0,song2
1107,77.83,1521046572.0,song2
1108,77.97,1521046573.0,song2
1109,78.08,1521046574.0,song2
1110,78.2,1521046575.0,song2
1111,78.33,1521046576.0,song2
1112,78.45,1521046577.0,song2
1113,78.58,1521046578.0,song2
1114,78.77,1521046579.0,song2
1115,78.93,1521046580.0,song2
1116,79.1,1521046581.0,song2
1117,79.27,1521046582.0,song2
1118,79.47,1521046583.0,song2
1119,79.7,1521046584.0,song2
1120,79.93,1521046585.0,song2
1121,80.15,1521046586.0,song2
1122,80.37,1521046587.0,song2
1123,80.6,1521046588.0,-1
1124,80.85,1521046589.0,-1
1125,81.07,1521046590.0,-1
1126,81.22,1521046591.0,-1
1127,81.37,1521046592.0,-1
1128,81.5,1521046593.0,-1
1129,81.67,1521046594.0,-1
1130,81.68,1521046595.0,-1
1131,81.8,1521046596.0,-1
1132,81.97,1521046597.0,-1
1133,82.13,1521046598.0,-1
1134,82.35,1521046599.0,-1
1135,82.6,1521046600.0,-1
1136,82.72,1521046601.0,-1
1137,82.8,1521046602.0,-1
1138,82.88,1521046603.0,-1
1139,82.95,1521046604.0,-1
1140,82.92,1521046605.0,-1
1141,82.8,1521046606.0,-1
1142,82.67,1521046607.0,-1
1143,82.5,1521046608.0,-1
1144,82.33,1521046609.0,-1
1145,82.18,1521046610.0,-1
1146,82.22,1521046611.0,-1
1147,82.28,1521046612.0,-1
1148,82.35,1521046613.0,-1
1149,82.45,1521046614.0,-1
1150,82.57,1521046615.0,-1
1151,82.72,1521046616.0,-1
1152,82.8,1521046617.0,-1
1153,82.93,1521046618.0,-1
1154,83.05,1521046619.0,-1
1155,83.15,1521046620.0,-1
1156,83.22,1521046621.0,-1
1157,83.17,1521046622.0,-1
1158,83.08,1521046623.0,-1
1159,82.97,1521046624.0,-1
1160,82.87,1521046625.0,-1
1161,82.82,1521046626.0,-1
1162,82.72,1521046627.0,-1
1163,82.65,1521046628.0,-1
1164,82.58,1521046629.0,-1
1165,82.48,1521046630.0,-1
1166,82.33,1521046631.0,-1
1167,82.15,1521046632.0,-1
1168,81.92,1521046633.0,-1
1169,81.67,1521046634.0,-1
1170,81.45,1521046635.0,-1
1171,81.25,1521046636.0,-1
1172,81.13,1521046637.0,-1
1173,81.05,1521046638.0,-1
1174,81.0,1521046639.0,-1
1175,80.98,1521046640.0,-1
1176,81.02,1521046641.0,-1
1177,81.03,1521046642.0,-1
1178,81.02,1521046643.0,-1
1179,81.0,1521046644.0,-1
1180,81.0,1521046645.0,-1
1181,81.02,1521046646.0,-1
1182,81.02,1521046647.0,song3
1183,81.02,1521046648.0,song3
1184,81.03,1521046649.0,song3
1185,81.08,1521046650.0,song3
1186,81.2,1521046651.0,song3
1187,81.27,1521046652.0,song3
1188,81.32,1521046653.0,song3
1189,81.38,1521046654.0,song3
1190,83.0,1521046655.0,song3
1191,84.55,1521046656.0,song3
1192,86.27,1521046657.0,song3
1193,87.97,1521046658.0,song3
1194,89.63,1521046659.0,song3
1195,91.33,1521046660.0,song3
1196,92.9,1521046661.0,song3
1197,94.5,1521046662.0,song3
1198,95.4,1521046663.0,song3
1199,96.28,1521046664.0,song3
1200,96.72,1521046665.0,song3
1201,97.12,1521046666.0,song3
1202,97.52,1521046667.0,song3
1203,97.92,1521046668.0,song3
1204,98.32,1521046669.0,song3
1205,98.72,1521046670.0,song3
1206,98.82,1521046671.0,song3
1207,98.93,1521046672.0,song3
1208,99.05,1521046673.0,song3
1209,99.08,1521046674.0,song3
1210,99.12,1521046675.0,song3
1211,99.15,1521046676.0,song3
1212,99.28,1521046677.0,song3
1213,99.35,1521046678.0,song3
1214,99.45,1521046679.0,song3
1215,99.48,1521046680.0,song3
1216,99.55,1521046681.0,song3
1217,99.68,1521046682.0,song3
1218,99.9,1521046683.0,song3
1219,100.17,1521046684.0,song3
1220,100.35,1521046685.0,song3
1221,100.48,1521046686.0,song3
1222,100.53,1521046687.0,song3
1223,100.6,1521046688.0,song3
1224,100.62,1521046689.0,song3
1225,100.7,1521046690.0,song3
1226,100.8,1521046691.0,song3
1227,100.88,1521046692.0,song3
1228,101.02,1521046693.0,song3
1229,101.15,1521046694.0,song3
1230,101.27,1521046695.0,song3
1231,101.32,1521046696.0,song3
1232,101.23,1521046697.0,song3
1233,101.13,1521046698.0,song3
1234,101.07,1521046699.0,song3
1235,101.03,1521046700.0,song3
1236,100.95,1521046701.0,song3
1237,100.87,1521046702.0,song3
1238,100.82,1521046703.0,song3
1239,100.78,1521046704.0,song3
1240,100.75,1521046705.0,song3
1241,100.73,1521046706.0,song3
1242,100.73,1521046707.0,song3
1243,100.75,1521046708.0,song3
1244,100.5,1521046709.0,song3
1245,100.22,1521046710.0,song3
1246,99.87,1521046711.0,song3
1247,99.6,1521046712.0,song3
1248,99.37,1521046713.0,song3
1249,99.1,1521046714.0,song3
1250,97.45,1521046715.0,song3
1251,95.82,1521046716.0,song3
1252,93.98,1521046717.0,song3
1253,92.13,1521046718.0,song3
1254,90.25,1521046719.0,song3
1255,88.35,1521046720.0,song3
1256,86.45,1521046721.0,song3
1257,84.6,1521046722.0,song3
1258,83.47,1521046723.0,song3
1259,82.3,1521046724.0,song3
1260,81.6,1521046725.0,song3
1261,81.2,1521046726.0,song3
1262,80.85,1521046727.0,song3
1263,80.5,1521046728.0,song3
1264,80.2,1521046729.0,song3
1265,79.93,1521046730.0,song3
1266,79.78,1521046731.0,song3
1267,79.57,1521046732.0,song3
1268,79.4,1521046733.0,song3
1269,79.3,1521046734.0,song3
1270,79.18,1521046735.0,song3
1271,79.05,1521046736.0,song3
1272,78.88,1521046737.0,song3
1273,78.72,1521046738.0,song3
1274,78.53,1521046739.0,song3
1275,78.47,1521046740.0,song3
1276,78.37,1521046741.0,song3
1277,78.2,1521046742.0,song3
1278,78.0,1521046743.0,song3
1279,77.82,1521046744.0,song3
1280,77.7,1521046745.0,song3
1281,77.6,1521046746.0,song3
1282,77.63,1521046747.0,song3
1283,77.62,1521046748.0,song3
1284,77.67,1521046749.0,song3
1285,77.67,1521046750.0,song3
1286,77.7,1521046751.0,song3
1287,77.75,1521046752.0,song3
1288,77.8,1521046753.0,song3
1289,77.87,1521046754.0,song3
1290,77.93,1521046755.0,song3
1291,78.03,1521046756.0,song3
1292,78.2,1521046757.0,song3
1293,78.33,1521046758.0,song3
1294,78.37,1521046759.0,song3
1295,78.33,1521046760.0,song3
1296,78.3,1521046761.0,song3
1297,78.27,1521046762.0,song3
1298,78.23,1521046763.0,song3
1299,78.22,1521046764.0,song3
1300,78.22,1521046765.0,song3
1301,78.2,1521046766.0,song3
1302,78.18,1521046767.0,song3
1303,78.15,1521046768.0,song3
1304,78.38,1521046769.0,-1
1305,78.63,1521046770.0,-1
1306,78.92,1521046771.0,-1
1307,79.15,1521046772.0,-1
1308,79.48,1521046773.0,-1
1309,79.85,1521046774.0,-1
1310,80.23,1521046775.0,-1
1311,80.58,1521046776.0,-1
1312,80.9,1521046777.0,-1
1313,81.17,1521046778.0,-1
1314,81.47,1521046779.0,-1
1315,81.75,1521046780.0,-1
1316,82.05,1521046781.0,-1
1317,82.32,1521046782.0,-1
1318,82.57,1521046783.0,-1
1319,82.88,1521046784.0,-1
1320,83.22,1521046785.0,-1
1321,83.32,1521046786.0,-1
1322,83.4,1521046787.0,-1
1323,83.5,1521046788.0,-1
1324,83.55,1521046789.0,-1
1325,83.57,1521046790.0,-1
1326,83.58,1521046791.0,-1
1327,83.62,1521046792.0,-1
1328,83.6,1521046793.0,-1
1329,83.55,1521046794.0,-1
1330,83.52,1521046795.0,-1
1331,83.47,1521046796.0,-1
1332,83.43,1521046797.0,-1
1333,83.4,1521046798.0,-1
1334,83.38,1521046799.0,-1
1335,83.35,1521046800.0,-1
1336,83.33,1521046801.0,-1
1337,83.33,1521046802.0,-1
1338,83.32,1521046803.0,-1
1339,83.28,1521046804.0,-1
1340,83.23,1521046805.0,-1
1341,83.13,1521046806.0,-1
1342,83.02,1521046807.0,-1
1343,82.92,1521046808.0,-1
1344,83.0,1521046809.0,-1
1345,83.07,1521046810.0,-1
1346,83.05,1521046811.0,-1
1347,83.02,1521046812.0,-1
1348,82.93,1521046813.0,-1
1349,82.82,1521046814.0,-1
1350,82.72,1521046815.0,-1
1351,82.63,1521046816.0,-1
1352,82.57,1521046817.0,-1
1353,82.52,1521046818.0,-1
1354,82.48,1521046819.0,-1
1355,82.45,1521046820.0,-1
1356,82.45,1521046821.0,-1
1357,82.45,1521046822.0,-1
1358,82.43,1521046823.0,-1
1359,82.38,1521046824.0,-1
1360,82.32,1521046825.0,-1
1361,82.25,1521046826.0,-1
1362,82.2,1521046827.0,-1
1363,82.15,1521046828.0,song4
1364,82.13,1521046829.0,song4
1365,82.13,1521046830.0,song4
1366,82.15,1521046831.0,song4
1367,82.18,1521046832.0,song4
1368,82.12,1521046833.0,song4
1369,82.03,1521046834.0,song4
1370,81.93,1521046835.0,song4
1371,81.85,1521046836.0,song4
1372,81.78,1521046837.0,song4
1373,81.8,1521046838.0,song4
1374,81.82,1521046839.0,song4
1375,81.83,1521046840.0,song4
1376,81.83,1521046841.0,song4
1377,81.83,1521046842.0,song4
1378,81.82,1521046843.0,song4
1379,81.8,1521046844.0,song4
1380,81.78,1521046845.0,song4
1381,81.75,1521046846.0,song4
1382,81.7,1521046847.0,song4
1383,81.65,1521046848.0,song4
1384,81.6,1521046849.0,song4
1385,81.57,1521046850.0,song4
1386,81.53,1521046851.0,song4
1387,81.5,1521046852.0,song4
1388,81.47,1521046853.0,song4
1389,81.42,1521046854.0,song4
1390,81.37,1521046855.0,song4
1391,81.33,1521046856.0,song4
1392,81.28,1521046857.0,song4
1393,81.23,1521046858.0,song4
1394,81.17,1521046859.0,song4
1395,81.07,1521046860.0,song4
1396,80.95,1521046861.0,song4
1397,80.82,1521046862.0,song4
1398,80.73,1521046863.0,song4
1399,80.65,1521046864.0,song4
1400,80.6,1521046865.0,song4
1401,80.63,1521046866.0,song4
1402,80.7,1521046867.0,song4
1403,80.77,1521046868.0,song4
1404,80.65,1521046869.0,song4
1405,80.55,1521046870.0,song4
1406,80.53,1521046871.0,song4
1407,80.53,1521046872.0,song4
1408,80.58,1521046873.0,song4
1409,80.67,1521046874.0,song4
1410,80.73,1521046875.0,song4
1411,80.8,1521046876.0,song4
1412,80.85,1521046877.0,song4
1413,80.9,1521046878.0,song4
1414,80.97,1521046879.0,song4
1415,81.02,1521046880.0,song4
1416,81.03,1521046881.0,song4
1417,81.05,1521046882.0,song4
1418,81.07,1521046883.0,song4
1419,81.1,1521046884.0,song4
1420,81.13,1521046885.0,song4
1421,81.17,1521046886.0,song4
1422,81.18,1521046887.0,song4
1423,81.2,1521046888.0,song4
1424,81.22,1521046889.0,song4
1425,81.25,1521046890.0,song4
1426,81.28,1521046891.0,song4
1427,81.33,1521046892.0,song4
1428,81.37,1521046893.0,song4
1429,81.42,1521046894.0,song4
1430,81.45,1521046895.0,song4
1431,81.53,1521046896.0,song4
1432,81.62,1521046897.0,song4
1433,81.68,1521046898.0,song4
1434,81.77,1521046899.0,song4
1435,81.87,1521046900.0,song4
1436,82.0,1521046901.0,song4
1437,82.17,1521046902.0,song4
1438,82.35,1521046903.0,song4
1439,82.5,1521046904.0,song4
1440,82.65,1521046905.0,song4
1441,82.78,1521046906.0,song4
1442,82.97,1521046907.0,song4
1443,83.15,1521046908.0,song4
1444,83.35,1521046909.0,song4
1445,83.55,1521046910.0,song4
1446,83.73,1521046911.0,song4
1447,83.92,1521046912.0,song4
1448,84.12,1521046913.0,song4
1449,84.25,1521046914.0,song4
1450,84.37,1521046915.0,song4
1451,84.5,1521046916.0,song4
1452,84.68,1521046917.0,song4
1453,84.8,1521046918.0,song4
1454,84.9,1521046919.0,song4
1455,85.02,1521046920.0,song4
1456,85.13,1521046921.0,song4
1457,85.27,1521046922.0,song4
1458,85.37,1521046923.0,song4
1459,85.48,1521046924.0,song4
1460,85.62,1521046925.0,song4
1461,85.7,1521046926.0,song4
1462,85.75,1521046927.0,song4
1463,85.8,1521046928.0,song4
1464,85.8,1521046929.0,song4
1465,85.82,1521046930.0,song4
1466,85.83,1521046931.0,song4
1467,85.82,1521046932.0,song4
1468,85.77,1521046933.0,song4
1469,85.73,1521046934.0,song4
1470,85.73,1521046935.0,song4
1471,85.75,1521046936.0,song4
1472,85.77,1521046937.0,song4
1473,85.77,1521046938.0,song4
1474,85.78,1521046939.0,song4
1475,85.85,1521046940.0,song4
1476,85.93,1521046941.0,song4
1477,85.97,1521046942.0,song4
1478,86.0,1521046943.0,song4
1479,86.02,1521046944.0,song4
1480,86.03,1521046945.0,song4
1481,86.05,1521046946.0,song4
1482,86.07,1521046947.0,song4
1483,86.1,1521046948.0,song4
1484,86.1,1521046949.0,song4
1485,86.12,1521046950.0,-1
1486,86.13,1521046951.0,-1
1487,86.13,1521046952.0,-1
1488,86.13,1521046953.0,-1
1489,86.13,1521046954.0,-1
1490,86.15,1521046955.0,-1
1491,86.1,1521046956.0,-1
1492,86.05,1521046957.0,-1
1493,86.0,1521046958.0,-1
1494,85.92,1521046959.0,-1
1495,85.82,1521046960.0,-1
1496,85.7,1521046961.0,-1
1497,85.55,1521046962.0,-1
1498,85.42,1521046963.0,-1
1499,85.32,1521046964.0,-1
1500,85.23,1521046965.0,-1
1501,85.22,1521046966.0,-1
1502,85.18,1521046967.0,-1
1503,85.15,1521046968.0,-1
1504,85.13,1521046969.0,-1
1505,85.13,1521046970.0,-1
1506,85.12,1521046971.0,-1
1507,85.1,1521046972.0,-1
1508,85.05,1521046973.0,-1
1509,85.12,1521046974.0,-1
1510,85.2,1521046975.0,-1
1511,85.25,1521046976.0,-1
1512,85.23,1521046977.0,-1
1513,85.25,1521046978.0,-1
1514,85.28,1521046979.0,-1
1515,85.3,1521046980.0,-1
1516,85.43,1521046981.0,-1
1517,85.57,1521046982.0,-1
1518,85.67,1521046983.0,-1
1519,85.82,1521046984.0,-1
1520,85.95,1521046985.0,-1
1521,86.1,1521046986.0,-1
1522,86.2,1521046987.0,-1
1523,86.28,1521046988.0,-1
1524,86.38,1521046989.0,-1
1525,86.3,1521046990.0,-1
1526,86.13,1521046991.0,-1
1527,86.0,1521046992.0,-1
1528,85.9,1521046993.0,-1
1529,85.77,1521046994.0,-1
1530,85.62,1521046995.0,-1
1531,85.47,1521046996.0,-1
1532,85.3,1521046997.0,-1
1533,85.15,1521046998.0,-1
1534,85.0,1521046999.0,-1
1535,84.8,1521047000.0,-1
1536,84.58,1521047001.0,-1
1537,84.35,1521047002.0,-1
1538,84.13,1521047003.0,-1
1539,83.87,1521047004.0,-1
1540,83.58,1521047005.0,-1
1541,83.3,1521047006.0,-1
1542,82.97,1521047007.0,-1
1543,82.58,1521047008.0,-1
1544,82.22,1521047009.0,song5
1545,81.82,1521047010.0,song5
1546,81.42,1521047011.0,song5
1547,81.0,1521047012.0,song5
1548,80.62,1521047013.0,song5
1549,80.22,1521047014.0,song5
1550,79.83,1521047015.0,song5
1551,79.52,1521047016.0,song5
1552,79.25,1521047017.0,song5
1553,78.88,1521047018.0,song5
1554,78.45,1521047019.0,song5
1555,78.05,1521047020.0,song5
1556,77.63,1521047021.0,song5
1557,77.23,1521047022.0,song5
1558,76.82,1521047023.0,song5
1559,76.42,1521047024.0,song5
1560,75.95,1521047025.0,song5
1561,75.43,1521047026.0,song5
1562,74.85,1521047027.0,song5
1563,74.28,1521047028.0,song5
1564,73.67,1521047029.0,song5
1565,72.95,1521047030.0,song5
1566,72.37,1521047031.0,song5
1567,71.8,1521047032.0,song5
1568,71.27,1521047033.0,song5
1569,70.72,1521047034.0,song5
1570,70.2,1521047035.0,song5
1571,69.73,1521047036.0,song5
1572,69.25,1521047037.0,song5
1573,68.8,1521047038.0,song5
1574,68.35,1521047039.0,song5
1575,67.9,1521047040.0,song5
1576,67.37,1521047041.0,song5
1577,66.77,1521047042.0,song5
1578,66.22,1521047043.0,song5
1579,65.58,1521047044.0,song5
1580,64.97,1521047045.0,song5
1581,64.33,1521047046.0,song5
1582,63.75,1521047047.0,song5
1583,63.2,1521047048.0,song5
1584,62.7,1521047049.0,song5
1585,62.35,1521047050.0,song5
1586,62.08,1521047051.0,song5
1587,61.83,1521047052.0,song5
1588,61.5,1521047053.0,song5
1589,61.22,1521047054.0,song5
1590,60.9,1521047055.0,song5
1591,60.57,1521047056.0,song5
1592,60.23,1521047057.0,song5
1593,59.9,1521047058.0,song5
1594,59.57,1521047059.0,song5
1595,59.28,1521047060.0,song5
1596,59.05,1521047061.0,song5
1597,58.87,1521047062.0,song5
1598,58.68,1521047063.0,song5
1599,58.57,1521047064.0,song5
1600,58.47,1521047065.0,song5
1601,58.37,1521047066.0,song5
1602,58.32,1521047067.0,song5
1603,58.28,1521047068.0,song5
1604,58.23,1521047069.0,song5
1605,58.1,1521047070.0,song5
1606,58.0,1521047071.0,song5
1607,57.92,1521047072.0,song5
1608,58.1,1521047073.0,song5
1609,58.23,1521047074.0,song5
1610,58.33,1521047075.0,song5
1611,58.63,1521047076.0,song5
1612,58.82,1521047077.0,song5
1613,59.07,1521047078.0,song5
1614,59.5,1521047079.0,song5
1615,59.92,1521047080.0,song5
1616,60.35,1521047081.0,song5
1617,60.78,1521047082.0,song5
1618,61.27,1521047083.0,song5
1619,61.72,1521047084.0,song5
1620,62.22,1521047085.0,song5
1621,62.68,1521047086.0,song5
1622,63.22,1521047087.0,song5
1623,63.72,1521047088.0,song5
1624,64.22,1521047089.0,song5
1625,64.8,1521047090.0,song5
1626,65.28,1521047091.0,song5
1627,65.77,1521047092.0,song5
1628,66.27,1521047093.0,song5
1629,66.78,1521047094.0,song5
1630,67.25,1521047095.0,song5
1631,67.68,1521047096.0,song5
1632,68.1,1521047097.0,song5
1633,68.48,1521047098.0,song5
1634,68.87,1521047099.0,song5
1635,69.28,1521047100.0,song5
1636,69.68,1521047101.0,song5
1637,70.17,1521047102.0,song5
1638,70.63,1521047103.0,song5
1639,71.13,1521047104.0,song5
1640,71.58,1521047105.0,song5
1641,72.07,1521047106.0,song5
1642,72.57,1521047107.0,song5
1643,73.05,1521047108.0,song5
1644,73.52,1521047109.0,song5
1645,74.0,1521047110.0,song5
1646,74.52,1521047111.0,song5
1647,75.03,1521047112.0,song5
1648,75.62,1521047113.0,song5
1649,76.17,1521047114.0,song5
1650,76.72,1521047115.0,song5
1651,77.27,1521047116.0,song5
1652,77.83,1521047117.0,song5
1653,78.37,1521047118.0,song5
1654,78.87,1521047119.0,song5
1655,79.33,1521047120.0,song5
1656,79.77,1521047121.0,song5
1657,80.22,1521047122.0,song5
1658,80.65,1521047123.0,song5
1659,81.07,1521047124.0,song5
1660,81.48,1521047125.0,song5
1661,81.88,1521047126.0,song5
1662,82.23,1521047127.0,song5
1663,82.6,1521047128.0,song5
1664,82.95,1521047129.0,song5
1665,83.37,1521047130.0,-1
1666,83.72,1521047131.0,-1
1667,84.05,1521047132.0,-1
1668,84.03,1521047133.0,-1
1669,84.07,1521047134.0,-1
1670,84.17,1521047135.0,-1
1671,84.02,1521047136.0,-1
1672,83.92,1521047137.0,-1
1673,83.87,1521047138.0,-1
1674,83.72,1521047139.0,-1
1675,83.55,1521047140.0,-1
1676,83.4,1521047141.0,-1
1677,83.27,1521047142.0,-1
1678,83.08,1521047143.0,-1
1679,82.92,1521047144.0,-1
1680,82.75,1521047145.0,-1
1681,82.62,1521047146.0,-1
1682,82.48,1521047147.0,-1
1683,82.37,1521047148.0,-1
1684,82.27,1521047149.0,-1
1685,82.15,1521047150.0,-1
1686,82.02,1521047151.0,-1
1687,81.85,1521047152.0,-1
1688,81.67,1521047153.0,-1
1689,81.45,1521047154.0,-1
1690,81.23,1521047155.0,-1
1691,81.02,1521047156.0,-1
1692,80.88,1521047157.0,-1
1693,80.83,1521047158.0,-1
1694,80.83,1521047159.0,-1
1695,80.83,1521047160.0,-1
1696,80.83,1521047161.0,-1
1697,80.8,1521047162.0,-1
1698,80.77,1521047163.0,-1
1699,80.7,1521047164.0,-1
1700,80.65,1521047165.0,-1
1701,80.6,1521047166.0,-1
1702,80.53,1521047167.0,-1
1703,80.45,1521047168.0,-1
1704,80.37,1521047169.0,-1
1705,80.28,1521047170.0,-1
1706,80.15,1521047171.0,-1
1707,80.02,1521047172.0,-1
1708,79.9,1521047173.0,-1
1709,79.8,1521047174.0,-1
1710,79.77,1521047175.0,-1
1711,79.75,1521047176.0,-1
1712,79.72,1521047177.0,-1
1713,79.7,1521047178.0,-1
1714,79.72,1521047179.0,-1
1715,79.73,1521047180.0,-1
1716,79.72,1521047181.0,-1
1717,79.7,1521047182.0,-1
1718,79.67,1521047183.0,-1
1719,79.63,1521047184.0,-1
1720,79.6,1521047185.0,-1
1721,79.6,1521047186.0,-1
1722,79.67,1521047187.0,-1
1723,79.67,1521047188.0,-1
1724,79.68,1521047189.0,-1
1725,79.83,1521047190.0,song6
1726,80.08,1521047191.0,song6
1727,80.33,1521047192.0,song6
1728,80.63,1521047193.0,song6
1729,80.93,1521047194.0,song6
1730,81.17,1521047195.0,song6
1731,81.4,1521047196.0,song6
1732,81.68,1521047197.0,song6
1733,82.0,1521047198.0,song6
1734,82.3,1521047199.0,song6
1735,82.48,1521047200.0,song6
1736,82.65,1521047201.0,song6
1737,82.78,1521047202.0,song6
1738,82.93,1521047203.0,song6
1739,83.07,1521047204.0,song6
1740,83.18,1521047205.0,song6
1741,83.3,1521047206.0,song6
1742,83.4,1521047207.0,song6
1743,83.48,1521047208.0,song6
1744,83.6,1521047209.0,song6
1745,83.73,1521047210.0,song6
1746,83.88,1521047211.0,song6
1747,84.03,1521047212.0,song6
1748,84.18,1521047213.0,song6
1749,84.33,1521047214.0,song6
1750,84.47,1521047215.0,song6
1751,84.62,1521047216.0,song6
1752,84.73,1521047217.0,song6
1753,84.8,1521047218.0,song6
1754,84.83,1521047219.0,song6
1755,84.85,1521047220.0,song6
1756,84.87,1521047221.0,song6
1757,84.92,1521047222.0,song6
1758,84.98,1521047223.0,song6
1759,85.08,1521047224.0,song6
1760,85.18,1521047225.0,song6
1761,85.28,1521047226.0,song6
1762,85.4,1521047227.0,song6
1763,85.53,1521047228.0,song6
1764,85.65,1521047229.0,song6
1765,85.77,1521047230.0,song6
1766,85.88,1521047231.0,song6
1767,85.98,1521047232.0,song6
1768,86.05,1521047233.0,song6
1769,86.1,1521047234.0,song6
1770,86.08,1521047235.0,song6
1771,86.07,1521047236.0,song6
1772,86.07,1521047237.0,song6
1773,86.08,1521047238.0,song6
1774,86.07,1521047239.0,song6
1775,86.05,1521047240.0,song6
1776,86.07,1521047241.0,song6
1777,86.1,1521047242.0,song6
1778,86.13,1521047243.0,song6
1779,86.18,1521047244.0,song6
1780,86.23,1521047245.0,song6
1781,86.27,1521047246.0,song6
1782,86.28,1521047247.0,song6
1783,86.37,1521047248.0,song6
1784,86.47,1521047249.0,song6
1785,86.45,1521047250.0,song6
1786,86.35,1521047251.0,song6
1787,86.3,1521047252.0,song6
1788,86.22,1521047253.0,song6
1789,86.15,1521047254.0,song6
1790,86.13,1521047255.0,song6
1791,86.13,1521047256.0,song6
1792,86.12,1521047257.0,song6
1793,86.05,1521047258.0,song6
1794,86.0,1521047259.0,song6
1795,86.07,1521047260.0,song6
1796,86.13,1521047261.0,song6
1797,86.18,1521047262.0,song6
1798,86.18,1521047263.0,song6
1799,86.18,1521047264.0,song6
1800,86.18,1521047265.0,song6
1801,86.22,1521047266.0,song6
1802,86.23,1521047267.0,song6
1803,86.28,1521047268.0,song6
1804,86.33,1521047269.0,song6
1805,86.38,1521047270.0,song6
1806,86.42,1521047271.0,song6
1807,86.47,1521047272.0,song6
1808,86.5,1521047273.0,song6
1809,86.53,1521047274.0,song6
1810,86.58,1521047275.0,song6
1811,86.63,1521047276.0,song6
1812,86.68,1521047277.0,song6
1813,86.73,1521047278.0,song6
1814,86.77,1521047279.0,song6
1815,86.8,1521047280.0,song6
1816,86.85,1521047281.0,song6
1817,86.88,1521047282.0,song6
1818,86.9,1521047283.0,song6
1819,86.93,1521047284.0,song6
1820,86.92,1521047285.0,song6
1821,86.93,1521047286.0,song6
1822,86.93,1521047287.0,song6
1823,86.95,1521047288.0,song6
1824,86.97,1521047289.0,song6
1825,86.98,1521047290.0,song6
1826,87.02,1521047291.0,song6
1827,87.05,1521047292.0,song6
1828,87.1,1521047293.0,song6
1829,87.15,1521047294.0,song6
1830,87.22,1521047295.0,song6
1831,87.28,1521047296.0,song6
1832,87.35,1521047297.0,song6
1833,87.42,1521047298.0,song6
1834,87.5,1521047299.0,song6
1835,87.58,1521047300.0,song6
1836,87.67,1521047301.0,song6
1837,87.72,1521047302.0,song6
1838,87.78,1521047303.0,song6
1839,87.82,1521047304.0,song6
1840,87.85,1521047305.0,song6
1841,87.85,1521047306.0,song6
1842,87.87,1521047307.0,song6
1843,87.87,1521047308.0,song6
1844,87.88,1521047309.0,song6
1845,87.92,1521047310.0,song6
1846,88.0,1521047311.0,-1
1847,88.03,1521047312.0,-1
1848,88.12,1521047313.0,-1
1849,88.18,1521047314.0,-1
1850,88.22,1521047315.0,-1
1851,88.2,1521047316.0,-1
1852,88.15,1521047317.0,-1
1853,88.05,1521047318.0,-1
1854,87.85,1521047319.0,-1
1855,87.7,1521047320.0,-1
1856,87.53,1521047321.0,-1
1857,87.4,1521047322.0,-1
1858,87.28,1521047323.0,-1
1859,87.2,1521047324.0,-1
1860,87.18,1521047325.0,-1
1861,87.17,1521047326.0,-1
1862,87.22,1521047327.0,-1
1863,87.27,1521047328.0,-1
1864,87.3,1521047329.0,-1
1865,87.35,1521047330.0,-1
1866,87.4,1521047331.0,-1
1867,87.45,1521047332.0,-1
1868,87.52,1521047333.0,-1
1869,87.58,1521047334.0,-1
1870,87.65,1521047335.0,-1
1871,87.67,1521047336.0,-1
1872,87.68,1521047337.0,-1
1873,87.68,1521047338.0,-1
1874,87.72,1521047339.0,-1
1875,87.77,1521047340.0,-1
1876,87.8,1521047341.0,-1
1877,87.85,1521047342.0,-1
1878,87.93,1521047343.0,-1
1879,88.0,1521047344.0,-1
1880,88.13,1521047345.0,-1
1881,88.25,1521047346.0,-1
1882,88.4,1521047347.0,-1
1883,88.55,1521047348.0,-1
1884,88.72,1521047349.0,-1
1885,88.93,1521047350.0,-1
1886,89.12,1521047351.0,-1
1887,89.78,1521047352.0,-1
1888,90.52,1521047353.0,-1
1889,91.27,1521047354.0,-1
1890,91.98,1521047355.0,-1
1891,92.72,1521047356.0,-1
1892,93.4,1521047357.0,-1
1893,94.1,1521047358.0,-1
1894,94.8,1521047359.0,-1
1895,95.27,1521047360.0,-1
1896,95.53,1521047361.0,-1
1897,95.8,1521047362.0,-1
1898,96.07,1521047363.0,-1
1899,96.4,1521047364.0,-1
1900,96.73,1521047365.0,-1
1901,97.02,1521047366.0,-1
1902,97.18,1521047367.0,-1
1903,97.35,1521047368.0,-1
1904,97.43,1521047369.0,-1
1905,97.47,1521047370.0,-1
1906,97.57,1521047371.0,-1
1907,97.42,1521047372.0,-1
1908,97.23,1521047373.0,-1
1909,97.05,1521047374.0,-1
1910,96.9,1521047375.0,-1
1911,96.78,1521047376.0,-1
1912,96.68,1521047377.0,-1
1913,96.65,1521047378.0,-1
1914,96.72,1521047379.0,-1
1915,96.75,1521047380.0,-1
1916,96.8,1521047381.0,-1
1917,96.85,1521047382.0,-1
1918,96.95,1521047383.0,-1
1919,96.98,1521047384.0,-1
1920,96.98,1521047385.0,-1
1921,96.98,1521047386.0,-1
1922,96.93,1521047387.0,-1
1923,96.88,1521047388.0,-1
1924,96.83,1521047389.0,-1
1925,96.75,1521047390.0,-1
1926,96.67,1521047391.0,-1
1927,96.57,1521047392.0,-1
1928,96.45,1521047393.0,-1
1929,96.33,1521047394.0,-1
1930,96.4,1521047395.0,-1
1931,96.37,1521047396.0,-1
1932,96.5,1521047397.0,-1
1933,96.52,1521047398.0,-1
1934,96.48,1521047399.0,-1
1935,96.62,1521047400.0,-1
1936,96.6,1521047401.0,-1
1937,96.58,1521047402.0,-1
1938,96.53,1521047403.0,-1
1939,96.47,1521047404.0,-1
1940,96.38,1521047405.0,-1
1941,96.28,1521047406.0,-1
1942,96.17,1521047407.0,-1
1943,95.97,1521047408.0,-1
1944,95.78,1521047409.0,-1
1945,95.72,1521047410.0,-1
1946,95.63,1521047411.0,-1
1947,95.07,1521047412.0,-1
1948,94.43,1521047413.0,-1
1949,93.75,1521047414.0,-1
1950,93.1,1521047415.0,-1
1951,92.32,1521047416.0,-1
1952,91.63,1521047417.0,-1
1953,90.9,1521047418.0,-1
1954,90.15,1521047419.0,-1
1955,89.63,1521047420.0,-1
1956,89.3,1521047421.0,-1
1957,88.98,1521047422.0,-1
1958,64.0,1521047477.0,-1
1959,58.0,1521047478.0,-1
1960,64.0,1521047479.0,-1
1961,68.75,1521047480.0,-1
1962,71.4,1521047481.0,song7
1963,68.67,1521047482.0,song7
1964,66.71,1521047483.0,song7
1965,65.25,1521047484.0,song7
1966,64.44,1521047485.0,song7
1967,63.8,1521047486.0,song7
1968,64.45,1521047487.0,song7
1969,65.0,1521047488.0,song7
1970,65.46,1521047489.0,song7
1971,66.0,1521047490.0,song7
1972,66.47,1521047491.0,song7
1973,67.0,1521047492.0,song7
1974,67.47,1521047493.0,song7
1975,68.5,1521047494.0,song7
1976,69.42,1521047495.0,song7
1977,70.25,1521047496.0,song7
1978,71.19,1521047497.0,song7
1979,72.05,1521047498.0,song7
1980,72.78,1521047499.0,song7
1981,73.46,1521047500.0,song7
1982,74.08,1521047501.0,song7
1983,74.69,1521047502.0,song7
1984,75.26,1521047503.0,song7
1985,75.75,1521047504.0,song7
1986,76.24,1521047505.0,song7
1987,76.7,1521047506.0,song7
1988,77.06,1521047507.0,song7
1989,77.38,1521047508.0,song7
1990,77.52,1521047509.0,song7
1991,77.68,1521047510.0,song7
1992,77.8,1521047511.0,song7
1993,77.94,1521047512.0,song7
1994,78.08,1521047513.0,song7
1995,78.16,1521047514.0,song7
1996,78.23,1521047515.0,song7
1997,78.35,1521047516.0,song7
1998,78.49,1521047517.0,song7
1999,78.67,1521047518.0,song7
2000,78.79,1521047519.0,song7
2001,78.93,1521047520.0,song7
2002,79.04,1521047521.0,song7
2003,79.11,1521047522.0,song7
2004,79.15,1521047523.0,song7
2005,79.19,1521047524.0,song7
2006,79.22,1521047525.0,song7
2007,79.28,1521047526.0,song7
2008,79.33,1521047527.0,song7
2009,79.42,1521047528.0,song7
2010,79.6,1521047529.0,song7
2011,79.78,1521047530.0,song7
2012,79.95,1521047531.0,song7
2013,80.12,1521047532.0,song7
2014,80.3,1521047533.0,song7
2015,80.45,1521047534.0,song7
2016,80.59,1521047535.0,song7
2017,80.73,1521047536.0,song7
2018,81.13,1521047537.0,song7
2019,81.72,1521047538.0,song7
2020,81.92,1521047539.0,song7
2021,82.02,1521047540.0,song7
2022,82.13,1521047541.0,song7
2023,82.72,1521047542.0,song7
2024,83.3,1521047543.0,song7
2025,83.88,1521047544.0,song7
2026,84.4,1521047545.0,song7
2027,84.92,1521047546.0,song7
2028,85.2,1521047547.0,song7
2029,85.47,1521047548.0,song7
2030,85.77,1521047549.0,song7
2031,86.03,1521047550.0,song7
2032,86.28,1521047551.0,song7
2033,86.53,1521047552.0,song7
2034,86.78,1521047553.0,song7
2035,86.85,1521047554.0,song7
2036,86.92,1521047555.0,song7
2037,87.0,1521047556.0,song7
2038,87.0,1521047557.0,song7
2039,87.02,1521047558.0,song7
2040,87.07,1521047559.0,song7
2041,87.08,1521047560.0,song7
2042,87.1,1521047561.0,song7
2043,87.1,1521047562.0,song7
2044,87.08,1521047563.0,song7
2045,87.08,1521047564.0,song7
2046,87.07,1521047565.0,song7
2047,87.03,1521047566.0,song7
2048,87.02,1521047567.0,song7
2049,87.03,1521047568.0,song7
2050,87.13,1521047569.0,song7
2051,87.23,1521047570.0,song7
2052,87.35,1521047571.0,song7
2053,87.47,1521047572.0,song7
2054,87.57,1521047573.0,song7
2055,87.6,1521047574.0,song7
2056,87.63,1521047575.0,song7
2057,87.67,1521047576.0,song7
2058,87.72,1521047577.0,song7
2059,87.78,1521047578.0,song7
2060,87.87,1521047579.0,song7
2061,87.95,1521047580.0,song7
2062,88.07,1521047581.0,song7
2063,88.23,1521047582.0,song7
2064,88.42,1521047583.0,song7
2065,88.6,1521047584.0,song7
2066,88.82,1521047585.0,song7
2067,89.0,1521047586.0,song7
2068,89.22,1521047587.0,song7
2069,89.37,1521047588.0,song7
2070,89.42,1521047589.0,song7
2071,89.47,1521047590.0,song7
2072,89.5,1521047591.0,song7
2073,89.53,1521047592.0,song7
2074,89.48,1521047593.0,song7
2075,89.47,1521047594.0,song7
2076,89.48,1521047595.0,song7
2077,89.5,1521047596.0,song7
2078,89.53,1521047597.0,song7
2079,89.58,1521047598.0,song7
2080,89.6,1521047599.0,song7
2081,89.58,1521047600.0,song7
2082,89.55,1521047601.0,song7
2083,89.47,1521047602.0,song7
2084,89.38,1521047603.0,-1
2085,89.32,1521047604.0,-1
2086,89.28,1521047605.0,-1
2087,89.25,1521047606.0,-1
2088,89.25,1521047607.0,-1
2089,89.27,1521047608.0,-1
2090,89.28,1521047609.0,-1
2091,89.3,1521047610.0,-1
2092,89.3,1521047611.0,-1
2093,89.3,1521047612.0,-1
2094,89.3,1521047613.0,-1
2095,89.3,1521047614.0,-1
2096,89.3,1521047615.0,-1
2097,89.28,1521047616.0,-1
2098,89.35,1521047617.0,-1
2099,89.42,1521047618.0,-1
2100,89.48,1521047619.0,-1
2101,89.57,1521047620.0,-1
2102,89.63,1521047621.0,-1
2103,89.72,1521047622.0,-1
2104,89.68,1521047623.0,-1
2105,89.7,1521047624.0,-1
2106,89.72,1521047625.0,-1
2107,89.7,1521047626.0,-1
2108,89.67,1521047627.0,-1
2109,89.62,1521047628.0,-1
2110,89.58,1521047629.0,-1
2111,89.5,1521047630.0,-1
2112,89.42,1521047631.0,-1
2113,89.3,1521047632.0,-1
2114,89.2,1521047633.0,-1
2115,89.2,1521047634.0,-1
2116,89.2,1521047635.0,-1
2117,89.17,1521047636.0,-1
2118,89.1,1521047637.0,-1
2119,88.97,1521047638.0,-1
2120,88.9,1521047639.0,-1
2121,88.82,1521047640.0,-1
2122,88.73,1521047641.0,-1
2123,88.63,1521047642.0,-1
2124,88.53,1521047643.0,-1
2125,88.43,1521047644.0,-1
2126,88.28,1521047645.0,-1
2127,88.15,1521047646.0,-1
2128,87.98,1521047647.0,-1
2129,87.83,1521047648.0,-1
2130,87.72,1521047649.0,-1
2131,87.63,1521047650.0,-1
2132,87.6,1521047651.0,-1
2133,87.55,1521047652.0,-1
2134,87.58,1521047653.0,-1
2135,87.62,1521047654.0,-1
2136,87.62,1521047655.0,-1
2137,87.62,1521047656.0,-1
2138,87.62,1521047657.0,-1
2139,87.62,1521047658.0,-1
2140,87.65,1521047659.0,-1
2141,87.72,1521047660.0,-1
2142,87.83,1521047661.0,-1
2143,88.02,1521047662.0,song8
2144,88.27,1521047663.0,song8
2145,88.47,1521047664.0,song8
2146,88.68,1521047665.0,song8
2147,88.9,1521047666.0,song8
2148,89.03,1521047667.0,song8
2149,89.23,1521047668.0,song8
2150,89.38,1521047669.0,song8
2151,89.48,1521047670.0,song8
2152,89.6,1521047671.0,song8
2153,89.67,1521047672.0,song8
2154,89.45,1521047673.0,song8
2155,89.2,1521047674.0,song8
2156,88.82,1521047675.0,song8
2157,88.43,1521047676.0,song8
2158,87.98,1521047677.0,song8
2159,87.55,1521047678.0,song8
2160,87.12,1521047679.0,song8
2161,86.63,1521047680.0,song8
2162,86.17,1521047681.0,song8
2163,85.7,1521047682.0,song8
2164,85.32,1521047683.0,song8
2165,84.9,1521047684.0,song8
2166,84.8,1521047685.0,song8
2167,84.75,1521047686.0,song8
2168,84.73,1521047687.0,song8
2169,84.7,1521047688.0,song8
2170,84.65,1521047689.0,song8
2171,84.63,1521047690.0,song8
2172,84.6,1521047691.0,song8
2173,84.58,1521047692.0,song8
2174,84.68,1521047693.0,song8
2175,84.73,1521047694.0,song8
2176,84.77,1521047695.0,song8
2177,84.8,1521047696.0,song8
2178,84.87,1521047697.0,song8
2179,84.93,1521047698.0,song8
2180,84.95,1521047699.0,song8
2181,84.95,1521047700.0,song8
2182,84.95,1521047701.0,song8
2183,84.97,1521047702.0,song8
2184,84.98,1521047703.0,song8
2185,85.02,1521047704.0,song8
2186,85.07,1521047705.0,song8
2187,85.1,1521047706.0,song8
2188,85.12,1521047707.0,song8
2189,85.15,1521047708.0,song8
2190,85.18,1521047709.0,song8
2191,85.18,1521047710.0,song8
2192,85.13,1521047711.0,song8
2193,85.07,1521047712.0,song8
2194,84.98,1521047713.0,song8
2195,84.9,1521047714.0,song8
2196,84.85,1521047715.0,song8
2197,84.85,1521047716.0,song8
2198,84.85,1521047717.0,song8
2199,84.85,1521047718.0,song8
2200,84.83,1521047719.0,song8
2201,84.8,1521047720.0,song8
2202,84.72,1521047721.0,song8
2203,84.48,1521047722.0,song8
2204,84.2,1521047723.0,song8
2205,83.98,1521047724.0,song8
2206,83.72,1521047725.0,song8
2207,83.5,1521047726.0,song8
2208,83.37,1521047727.0,song8
2209,83.17,1521047728.0,song8
2210,83.0,1521047729.0,song8
2211,82.88,1521047730.0,song8
2212,82.78,1521047731.0,song8
2213,82.72,1521047732.0,song8
2214,82.92,1521047733.0,song8
2215,83.17,1521047734.0,song8
2216,83.52,1521047735.0,song8
2217,83.95,1521047736.0,song8
2218,84.33,1521047737.0,song8
2219,84.7,1521047738.0,song8
2220,85.05,1521047739.0,song8
2221,85.45,1521047740.0,song8
2222,85.85,1521047741.0,song8
2223,86.22,1521047742.0,song8
2224,86.62,1521047743.0,song8
2225,86.92,1521047744.0,song8
2226,86.93,1521047745.0,song8
2227,86.93,1521047746.0,song8
2228,86.93,1521047747.0,song8
2229,86.93,1521047748.0,song8
2230,86.92,1521047749.0,song8
2231,86.88,1521047750.0,song8
2232,86.87,1521047751.0,song8
2233,86.87,1521047752.0,song8
2234,86.77,1521047753.0,song8
2235,86.73,1521047754.0,song8
2236,86.75,1521047755.0,song8
2237,86.8,1521047756.0,song8
2238,86.83,1521047757.0,song8
2239,86.9,1521047758.0,song8
2240,86.97,1521047759.0,song8
2241,87.05,1521047760.0,song8
2242,87.12,1521047761.0,song8
2243,87.17,1521047762.0,song8
2244,87.22,1521047763.0,song8
2245,87.22,1521047764.0,song8
2246,87.18,1521047765.0,song8
2247,87.17,1521047766.0,song8
2248,87.18,1521047767.0,song8
2249,87.27,1521047768.0,song8
2250,87.27,1521047769.0,song8
2251,87.4,1521047770.0,song8
2252,87.42,1521047771.0,song8
2253,87.5,1521047772.0,song8
2254,87.6,1521047773.0,song8
2255,87.68,1521047774.0,song8
2256,87.73,1521047775.0,song8
2257,87.73,1521047776.0,song8
2258,87.75,1521047777.0,song8
2259,87.78,1521047778.0,song8
2260,87.82,1521047779.0,song8
2261,87.83,1521047780.0,song8
2262,87.87,1521047781.0,song8
2263,88.02,1521047782.0,song8
2264,88.13,1521047783.0,-1
2265,88.2,1521047784.0,-1
2266,88.28,1521047785.0,-1
2267,88.3,1521047786.0,-1
2268,88.28,1521047787.0,-1
2269,88.27,1521047788.0,-1
2270,88.25,1521047789.0,-1
2271,88.25,1521047790.0,-1
2272,88.27,1521047791.0,-1
2273,88.27,1521047792.0,-1
2274,88.28,1521047793.0,-1
2275,88.28,1521047794.0,-1
2276,88.3,1521047795.0,-1
2277,88.17,1521047796.0,-1
2278,88.1,1521047797.0,-1
2279,88.02,1521047798.0,-1
2280,87.93,1521047799.0,-1
2281,87.93,1521047800.0,-1
2282,87.88,1521047801.0,-1
2283,87.85,1521047802.0,-1
2284,87.85,1521047803.0,-1
2285,87.92,1521047804.0,-1
2286,87.95,1521047805.0,-1
2287,87.98,1521047806.0,-1
2288,88.03,1521047807.0,-1
2289,88.1,1521047808.0,-1
2290,88.17,1521047809.0,-1
2291,88.27,1521047810.0,-1
2292,88.37,1521047811.0,-1
2293,88.42,1521047812.0,-1
2294,88.43,1521047813.0,-1
2295,88.58,1521047814.0,-1
2296,88.87,1521047815.0,-1
2297,89.12,1521047816.0,-1
2298,89.3,1521047817.0,-1
2299,89.48,1521047818.0,-1
2300,89.72,1521047819.0,-1
2301,89.95,1521047820.0,-1
2302,90.2,1521047821.0,-1
2303,90.47,1521047822.0,-1
2304,90.75,1521047823.0,-1
2305,91.12,1521047824.0,-1
2306,91.52,1521047825.0,-1
2307,91.92,1521047826.0,-1
2308,92.3,1521047827.0,-1
2309,92.62,1521047828.0,-1
2310,93.07,1521047829.0,-1
2311,93.35,1521047830.0,-1
2312,93.77,1521047831.0,-1
2313,94.13,1521047832.0,-1
2314,94.5,1521047833.0,-1
2315,94.83,1521047834.0,-1
2316,95.12,1521047835.0,-1
2317,95.4,1521047836.0,-1
