genre	key
S	TV/Movie/Game Soundtracks
C	Classical, Piano
G	Reggae
J	Jazz, Swing, Disco
B	Blues, Rhythm & Blues, Soul, Gospel
P	Pop, Pop Rock, Alternative Pop
R	Rock, Alternative, Alternative Rock, Pschedelic Rock, Funk
H	Hard Rock, Punk Rock, Metal, Heavy Metal, Nu Metal
A	Acoustic, Singer/Songwriter
T	Rap, Hip Hop, Trip Hop
D	Dance, Electronic, Electronica, Drum and Bass, New Wave, Euro House, Bigbeat